\contentsline {section}{\numberline {1}Erkl\IeC {\"a}rung}{3}% 
\contentsline {subsection}{\numberline {1.1}Der Barbiershop}{3}% 
\contentsline {subsection}{\numberline {1.2}Ablauf des Barbier}{4}% 
\contentsline {subsection}{\numberline {1.3}Ablauf eines Kunden}{5}% 
\contentsline {section}{\numberline {2}M\IeC {\"o}gliche Probleme}{6}% 
\contentsline {subsection}{\numberline {2.1}Kunde vs. Kunde}{6}% 
\contentsline {subsection}{\numberline {2.2}Barbier vs. Kunden}{6}% 
\contentsline {section}{\numberline {3}Implementierung}{7}% 
\contentsline {subsection}{\numberline {3.1}Kommunikation Barbier-Kunde}{7}% 
\contentsline {subsection}{\numberline {3.2}CLI11}{8}% 
\contentsline {subsection}{\numberline {3.3}Kommunikation mittels Asio}{8}% 
\contentsline {subsection}{\numberline {3.4}Semaphore}{8}% 
\contentsline {subsection}{\numberline {3.5}Client Prozess}{9}% 
\contentsline {subsection}{\numberline {3.6}Hauptthread des Serverprzesses}{9}% 
\contentsline {subsection}{\numberline {3.7}Barber Klasse}{10}% 
\contentsline {subsection}{\numberline {3.8}Client Thread}{11}% 
\contentsline {subsection}{\numberline {3.9}Output Klasse}{13}% 
\contentsline {subsection}{\numberline {3.10}Schlusswort}{14}% 
